…
</td>
<td>

```R
# count() is a convenient way to get a sense of the distribution of
# values in a dataset
starwars %>% count(species)
#> # A tibble: 38 x 2
#>    species       n
#>    <chr>     <int>
#>  1 Aleena        1
#>  2 Besalisk      1
#>  3 Cerean        1
#>  4 Chagrian      1
#>  5 Clawdite      1
#>  6 Droid         6
#>  7 Dug           1
#>  8 Ewok          1
#>  9 Geonosian     1
#> 10 Gungan        3
#> # … with 28 more rows
```
…
</td>
<td>

```R
starwars %>% count(species, sort = TRUE)
#> # A tibble: 38 x 2
#>    species      n
#>    <chr>    <int>
#>  1 Human       35
#>  2 Droid        6
#>  3 NA           4
#>  4 Gungan       3
#>  5 Kaminoan     2
#>  6 Mirialan     2
#>  7 Twi'lek      2
#>  8 Wookiee      2
#>  9 Zabrak       2
#> 10 Aleena       1
#> # … with 28 more rows
```
…
</td>
<td>

```R
starwars %>% group_by(species) %>% tally()
#> # A tibble: 38 x 2
#>    species       n
#>    <chr>     <int>
#>  1 Aleena        1
#>  2 Besalisk      1
#>  3 Cerean        1
#>  4 Chagrian      1
#>  5 Clawdite      1
#>  6 Droid         6
#>  7 Dug           1
#>  8 Ewok          1
#>  9 Geonosian     1
#> 10 Gungan        3
#> # … with 28 more rows
```
…
