…
# [67 rows x 3 columns]
```

</td>
<td>

```R
# use across() to access select()-style semantics
distinct(starwars, across(contains("color")))
#> # A tibble: 67 x 3
#>    hair_color    skin_color  eye_color
#>    <chr>         <chr>       <chr>
#>  1 blond         fair        blue
#>  2 NA            gold        yellow
#>  3 NA            white, blue red
#>  4 none          white       yellow
#>  5 brown         light       brown
#>  6 brown, grey   light       blue
#>  7 brown         light       blue
#>  8 NA            white, red  red
#>  9 black         light       brown
#> 10 auburn, white fair        blue-gray
#> # … with 57 more rows
```
…
