…
</td>
<td>

```R
# Filtering by one criterion
filter(starwars, species == "Human")
#> # A tibble: 35 x 14
#>    name  height  mass hair_color skin_color eye_color birth_year sex   gender
#>    <chr>  <int> <dbl> <chr>      <chr>      <chr>          <dbl> <chr> <chr>
#>  1 Luke…    172    77 blond      fair       blue            19   male  mascu…
#>  2 Dart…    202   136 none       white      yellow          41.9 male  mascu…
#>  3 Leia…    150    49 brown      light      brown           19   fema… femin…
#>  4 Owen…    178   120 brown, gr… light      blue            52   male  mascu…
#>  5 Beru…    165    75 brown      light      blue            47   fema… femin…
#>  6 Bigg…    183    84 black      light      brown           24   male  mascu…
#>  7 Obi-…    182    77 auburn, w… fair       blue-gray       57   male  mascu…
#>  8 Anak…    188    84 blond      fair       blue            41.9 male  mascu…
#>  9 Wilh…    180    NA auburn, g… fair       blue            64   male  mascu…
#> 10 Han …    180    80 brown      fair       brown           29   male  mascu…
#> # … with 25 more rows, and 5 more variables: homeworld <chr>, species <chr>,
#> #   films <list>, vehicles <list>, starships <list>
```
…
</td>
<td>

```R
filter(starwars, hair_color == "none" | eye_color == "black")
#> # A tibble: 38 x 14
#>    name  height  mass hair_color skin_color eye_color birth_year sex   gender
#>    <chr>  <int> <dbl> <chr>      <chr>      <chr>          <dbl> <chr> <chr>
#>  1 Dart…    202   136 none       white      yellow          41.9 male  mascu…
#>  2 Gree…    173    74 NA         green      black           44   male  mascu…
#>  3 IG-88    200   140 none       metal      red             15   none  mascu…
#>  4 Bossk    190   113 none       green      red             53   male  mascu…
#>  5 Lobot    175    79 none       light      blue            37   male  mascu…
#>  6 Ackb…    180    83 none       brown mot… orange          41   male  mascu…
#>  7 Nien…    160    68 none       grey       black           NA   male  mascu…
#>  8 Nute…    191    90 none       mottled g… red             NA   male  mascu…
#>  9 Jar …    196    66 none       orange     orange          52   male  mascu…
#> 10 Roos…    224    82 none       grey       orange          NA   male  mascu…
#> # … with 28 more rows, and 5 more variables: homeworld <chr>, species <chr>,
#> #   films <list>, vehicles <list>, starships <list>
```
…
</td>
<td>

```R
# To refer to column names that are stored as strings, use the `.data` pronoun:
vars <- c("mass", "height")
cond <- c(80, 150)
starwars %>%
  filter(
    .data[[vars[[1]]]] > cond[[1]],
    .data[[vars[[2]]]] > cond[[2]]
  )
#> # A tibble: 21 x 14
#>    name  height  mass hair_color skin_color eye_color birth_year sex   gender
#>    <chr>  <int> <dbl> <chr>      <chr>      <chr>          <dbl> <chr> <chr>
#>  1 Dart…    202   136 none       white      yellow          41.9 male  mascu…
#>  2 Owen…    178   120 brown, gr… light      blue            52   male  mascu…
#>  3 Bigg…    183    84 black      light      brown           24   male  mascu…
#>  4 Anak…    188    84 blond      fair       blue            41.9 male  mascu…
#>  5 Chew…    228   112 brown      unknown    blue           200   male  mascu…
#>  6 Jabb…    175  1358 NA         green-tan… orange         600   herm… mascu…
#>  7 Jek …    180   110 brown      fair       blue            NA   male  mascu…
#>  8 IG-88    200   140 none       metal      red             15   none  mascu…
#>  9 Bossk    190   113 none       green      red             53   male  mascu…
#> 10 Ackb…    180    83 none       brown mot… orange          41   male  mascu…
#> # … with 11 more rows, and 5 more variables: homeworld <chr>, species <chr>,
#> #   films <list>, vehicles <list>, starships <list>
…
