…
</td>
<td>

```R
# Newly created variables are available immediately
starwars %>%
 select(name, mass) %>%
 mutate(
  mass2 = mass * 2,
  mass2_squared = mass2 * mass2
)
#> # A tibble: 87 x 4
#>    name                mass mass2 mass2_squared
#>    <chr>              <dbl> <dbl>         <dbl>
#>  1 Luke Skywalker        77   154         23716
#>  2 C-3PO                 75   150         22500
#>  3 R2-D2                 32    64          4096
#>  4 Darth Vader          136   272         73984
#>  5 Leia Organa           49    98          9604
#>  6 Owen Lars            120   240         57600
#>  7 Beru Whitesun lars    75   150         22500
#>  8 R5-D4                 32    64          4096
#>  9 Biggs Darklighter     84   168         28224
#> 10 Obi-Wan Kenobi        77   154         23716
#> # … with 77 more rows
```
…
</td>
<td>

```R
# As well as adding new variables, you can use mutate() to
# remove variables and modify existing variables.
starwars %>%
 select(name, height, mass, homeworld) %>%
 mutate(
  mass = NULL,
  height = height * 0.0328084 # convert to feet
)
#> # A tibble: 87 x 3
#>    name               height homeworld
#>    <chr>               <dbl> <chr>
#>  1 Luke Skywalker       5.64 Tatooine
#>  2 C-3PO                5.48 Tatooine
#>  3 R2-D2                3.15 Naboo
#>  4 Darth Vader          6.63 Tatooine
#>  5 Leia Organa          4.92 Alderaan
#>  6 Owen Lars            5.84 Tatooine
#>  7 Beru Whitesun lars   5.41 Tatooine
#>  8 R5-D4                3.18 Tatooine
#>  9 Biggs Darklighter    6.00 Tatooine
#> 10 Obi-Wan Kenobi       5.97 Stewjon
#> # … with 77 more rows
```
…
</td>
<td>

```R
# Use across() with mutate() to apply a transformation
# to multiple columns in a tibble.
starwars %>%
 select(name, homeworld, species) %>%
 mutate(across(!name, as.factor))
#> # A tibble: 87 x 3
#>    name               homeworld species
#>    <chr>              <fct>     <fct>
#>  1 Luke Skywalker     Tatooine  Human
#>  2 C-3PO              Tatooine  Droid
#>  3 R2-D2              Naboo     Droid
#>  4 Darth Vader        Tatooine  Human
#>  5 Leia Organa        Alderaan  Human
#>  6 Owen Lars          Tatooine  Human
#>  7 Beru Whitesun lars Tatooine  Human
#>  8 R5-D4              Tatooine  Droid
#>  9 Biggs Darklighter  Tatooine  Human
#> 10 Obi-Wan Kenobi     Stewjon   Human
#> # … with 77 more rows
…
</td>
<td>

```R
# Window functions are useful for grouped mutates:
starwars %>%
 select(name, mass, homeworld) %>%
 group_by(homeworld) %>%
 mutate(rank = min_rank(desc(mass)))
#> # A tibble: 87 x 4
#> # Groups:   homeworld [49]
#>    name                mass homeworld  rank
#>    <chr>              <dbl> <chr>     <int>
#>  1 Luke Skywalker        77 Tatooine      5
#>  2 C-3PO                 75 Tatooine      6
#>  3 R2-D2                 32 Naboo         6
#>  4 Darth Vader          136 Tatooine      1
#>  5 Leia Organa           49 Alderaan      2
#>  6 Owen Lars            120 Tatooine      2
#>  7 Beru Whitesun lars    75 Tatooine      6
#>  8 R5-D4                 32 Tatooine      8
#>  9 Biggs Darklighter     84 Tatooine      3
#> 10 Obi-Wan Kenobi        77 Stewjon       1
#> # … with 77 more rows
```
…
</td>
<td>

```R
# Grouping ----------------------------------------
# The mutate operation may yield different results on grouped
# tibbles because the expressions are computed within groups.
# The following normalises `mass` by the global average:
starwars %>%
  select(name, mass, species) %>%
  mutate(mass_norm = mass / mean(mass, na.rm = TRUE))
#> # A tibble: 87 x 4
#>    name                mass species mass_norm
#>    <chr>              <dbl> <chr>       <dbl>
#>  1 Luke Skywalker        77 Human       0.791
#>  2 C-3PO                 75 Droid       0.771
#>  3 R2-D2                 32 Droid       0.329
#>  4 Darth Vader          136 Human       1.40
#>  5 Leia Organa           49 Human       0.504
#>  6 Owen Lars            120 Human       1.23
#>  7 Beru Whitesun lars    75 Human       0.771
#>  8 R5-D4                 32 Droid       0.329
#>  9 Biggs Darklighter     84 Human       0.863
#> 10 Obi-Wan Kenobi        77 Human       0.791
#> # … with 77 more rows
```
…
</td>
<td>

```R
# Whereas this normalises `mass` by the averages within species
# levels:
starwars %>%
  select(name, mass, species) %>%
  group_by(species) %>%
  mutate(mass_norm = mass / mean(mass, na.rm = TRUE))
#> # A tibble: 87 x 4
#> # Groups:   species [38]
#>    name                mass species mass_norm
#>    <chr>              <dbl> <chr>       <dbl>
#>  1 Luke Skywalker        77 Human       0.930
#>  2 C-3PO                 75 Droid       1.08
#>  3 R2-D2                 32 Droid       0.459
#>  4 Darth Vader          136 Human       1.64
#>  5 Leia Organa           49 Human       0.592
#>  6 Owen Lars            120 Human       1.45
#>  7 Beru Whitesun lars    75 Human       0.906
#>  8 R5-D4                 32 Droid       0.459
#>  9 Biggs Darklighter     84 Human       1.01
#> 10 Obi-Wan Kenobi        77 Human       0.930
#> # … with 77 more rows
```
…
</td>
<td>

```R
# Indirection ----------------------------------------
# Refer to column names stored as strings with the `.data` pronoun:
vars <- c("mass", "height")
mutate(starwars, prod = .data[[vars[[1]]]] * .data[[vars[[2]]]])
#> # A tibble: 87 x 15
#>    name  height  mass hair_color skin_color eye_color birth_year sex   gender
#>    <chr>  <int> <dbl> <chr>      <chr>      <chr>          <dbl> <chr> <chr>
#>  1 Luke…    172    77 blond      fair       blue            19   male  mascu…
#>  2 C-3PO    167    75 NA         gold       yellow         112   none  mascu…
#>  3 R2-D2     96    32 NA         white, bl… red             33   none  mascu…
#>  4 Dart…    202   136 none       white      yellow          41.9 male  mascu…
#>  5 Leia…    150    49 brown      light      brown           19   fema… femin…
#>  6 Owen…    178   120 brown, gr… light      blue            52   male  mascu…
#>  7 Beru…    165    75 brown      light      blue            47   fema… femin…
#>  8 R5-D4     97    32 NA         white, red red             NA   none  mascu…
#>  9 Bigg…    183    84 black      light      brown           24   male  mascu…
#> 10 Obi-…    182    77 auburn, w… fair       blue-gray       57   male  mascu…
#> # … with 77 more rows, and 6 more variables: homeworld <chr>, species <chr>,
#> #   films <list>, vehicles <list>, starships <list>, prod <dbl>
…
